…
\$\$ \text{betareg, brms, mgcv, etc.} \\ \mu = \alpha / (\alpha + \beta)
\\ \phi = \alpha + b \\ \textsf{E}(y) = \mu \\ \textsf{VAR}(y) =
\mu(1-\mu)/(1 + \phi) \\ \$\$

\$\$ \text{GAMLSS} \\ \mu = \alpha / (\alpha + \beta) \\ \sigma = (1 /
(\alpha + \beta + 1))^.5 \\ \textsf{E}(y) = \mu \\ \textsf{VAR}(y) =
\mu(1-\mu)\sigma^2 \$\$

## Examples

``` r
data_fake_intelligibility
#> # A tibble: 200 × 2
#>    age_months intelligibility
#>         <int>           <dbl>
#>  1         28           0.539
#>  2         29           0.375
#>  3         31           0.221
#>  4         31           0.253
#>  5         32           0.276
#>  6         32           0.750
#>  7         32           0.820
#>  8         33           0.325
#>  9         33           0.446
#> 10         33           0.592
#> # ℹ 190 more rows
…
# predict logit(mean) at 55 months:
logit_mean_55 <- cbind(1, predict(m$.user$basis_mu, 55)) %*% coef(m)
logit_mean_55
#>          [,1]
#> [1,] 1.627416
stats::plogis(logit_mean_55)
#>           [,1]
#> [1,] 0.8358153

# But predict_gen_gamma_gamlss() does this work for us and also provides
# centiles
new_ages <- data.frame(age_months = 48:71)
centiles <- predict_beta_gamlss(new_ages, m)
centiles
#> # A tibble: 24 × 8
#>    age_months    mu sigma    c5   c10   c50   c90   c95
#>         <int> <dbl> <dbl> <dbl> <dbl> <dbl> <dbl> <dbl>
#>  1         48 0.761 0.296 0.527 0.586 0.778 0.912 0.936
#>  2         49 0.773 0.291 0.547 0.605 0.791 0.918 0.941
#>  3         50 0.785 0.286 0.566 0.623 0.803 0.924 0.946
#>  4         51 0.796 0.281 0.584 0.640 0.814 0.929 0.950
#>  5         52 0.807 0.276 0.602 0.656 0.824 0.934 0.953
#>  6         53 0.817 0.271 0.619 0.672 0.834 0.938 0.957
#>  7         54 0.827 0.266 0.636 0.687 0.844 0.943 0.960
#>  8         55 0.836 0.261 0.652 0.702 0.852 0.946 0.963
#>  9         56 0.844 0.256 0.668 0.716 0.861 0.950 0.965
#> 10         57 0.852 0.251 0.683 0.730 0.868 0.953 0.968
#> # ℹ 14 more rows
…
