…
[`predict_centiles()`](https://www.tjmahr.com/wisclabmisc/reference/predict_centiles.md)
will work with this function, but it will likely throw a warning
message. Therefore, `predict_gen_gamma_gamlss()` provides an alternative
way to compute centiles from the model. This function manually computes
the centiles instead of relying on
[`gamlss::centiles()`](https://rdrr.io/pkg/gamlss/man/centiles.html).
The main difference is that new *x* values go through
[`splines::predict.ns()`](https://rdrr.io/r/splines/predict.bs.html) and
then these are multiplied by model coefficients.

## Examples

``` r
data_fake_rates
#> # A tibble: 200 × 2
#>    age_months speaking_sps
#>         <int>        <dbl>
#>  1         66         3.76
#>  2         29         2.08
#>  3         90         3.07
#>  4         61         2.64
#>  5         46         3.54
#>  6         61         3.23
#>  7         63         3.55
#>  8         51         2.84
#>  9         48         3.24
#> 10         37         2.39
#> # ℹ 190 more rows
…
# predict log(mean) at 55 months:
log_mean_55 <- cbind(1, predict(m$.user$basis_mu, 55)) %*% coef(m)
log_mean_55
#>          [,1]
#> [1,] 1.070221
exp(log_mean_55)
#>          [,1]
#> [1,] 2.916024

# But predict_gen_gamma_gamlss() does this work for us and also provides
# centiles
new_ages <- data.frame(age_months = 48:71)
centiles <- predict_gen_gamma_gamlss(new_ages, m)
centiles
#> # A tibble: 24 × 9
#>    age_months    mu sigma     nu    c5   c10   c50   c90   c95
#>         <int> <dbl> <dbl>  <dbl> <dbl> <dbl> <dbl> <dbl> <dbl>
#>  1         48  2.83 0.142 -1.60   2.29  2.40  2.86  3.47  3.68
#>  2         49  2.84 0.141 -1.50   2.30  2.41  2.87  3.48  3.68
#>  3         50  2.86 0.140 -1.40   2.32  2.43  2.88  3.48  3.68
#>  4         51  2.87 0.138 -1.31   2.33  2.44  2.89  3.48  3.68
#>  5         52  2.88 0.137 -1.21   2.34  2.45  2.90  3.49  3.68
#>  6         53  2.89 0.136 -1.11   2.35  2.46  2.91  3.49  3.68
#>  7         54  2.91 0.135 -1.02   2.36  2.47  2.92  3.49  3.68
#>  8         55  2.92 0.134 -0.920  2.37  2.48  2.93  3.50  3.68
#>  9         56  2.93 0.132 -0.823  2.38  2.49  2.94  3.50  3.68
#> 10         57  2.94 0.131 -0.726  2.39  2.50  2.95  3.50  3.68
#> # ℹ 14 more rows
…
