This document describes the model specification and the code used to fit
the model.

## Data overview

Let's take note of the data.

Here are the first 10 rows of the data.

``` r
library(tidyverse)
data
#> # A tibble: 513 x 4
#>    sid     age slpg    intel
#>    <chr> <dbl> <fct>   <dbl>
#>  1 c65      53 NSMI    0.890
#>  2 c65      60 NSMI    0.892
#>  3 c65      65 NSMI    0.951
#>  4 c65      70 NSMI    0.975
#>  5 c65      76 NSMI    0.977
#>  6 c65      81 NSMI    0.974
#>  7 c65      87 NSMI    0.990
#>  8 c65      96 NSMI    0.988
#>  9 c45      45 SMI-LCT 0.417
#> 10 c45      51 SMI-LCT 0.706
#> # ... with 503 more rows
```
…
-   `sid` uniquely identifies each child
-   `age` is a child's age in months
-   `slpg` is the child's speech-language profile group
-   `intel` is the child's intelligibility measurement

Children are nested in speech-language profile groups and visits are
nested in children.

``` r
data %>% 
  group_by(slpg, sid) %>% 
  summarise(
    n_visits_by_child = n()
  )
#> # A tibble: 65 x 3
#> # Groups:   slpg [3]
#>    slpg  sid   n_visits_by_child
#>    <fct> <chr>             <int>
#>  1 NSMI  c12                  10
#>  2 NSMI  c13                  10
#>  3 NSMI  c15                   7
#>  4 NSMI  c23                   4
#>  5 NSMI  c26                  10
#>  6 NSMI  c28                  11
#>  7 NSMI  c32                  10
#>  8 NSMI  c37                  11
#>  9 NSMI  c4                    8
#> 10 NSMI  c40                   8
#> # ... with 55 more rows
…
