This document describes the statistical analyses used in the manuscript.
All of the code shown is for the R programming language (vers. 4.1.1, R
Core Team, 2021).

## Data

Our data features repeated measurements of VSS levels rating. The first
few rows of our data set would be:

``` r
library(tidyverse)
data
#> # A tibble: 328 x 4
#>    child age_group age_group_4 vss_rating
#>    <chr>     <dbl>       <dbl> <ord>     
#>  1 p001          4           0 4         
#>  2 p001          6           2 3         
#>  3 p002          4           0 4         
#>  4 p002          6           2 3         
#>  5 p002          8           4 2         
#>  6 p002         10           6 2         
#>  7 p003          4           0 2         
#>  8 p003          6           2 2         
#>  9 p003         10           6 1         
#> 10 p004          4           0 4         
#> # ... with 318 more rows
…
``` r
draws_expected_ratings <- draws_average_child %>%
  ungroup() %>% 
  mutate(
    weight = as.numeric(.category) * .epred
  ) %>% 
  group_by(child, age_group_4, .draw) %>% 
  summarise(
    expected_rating = sum(weight),
    .groups = "drop"
  )
draws_expected_ratings
#> # A tibble: 32,000 x 4
#>    child age_group_4 .draw expected_rating
#>    <chr>       <dbl> <int>           <dbl>
#>  1 fake            0     1            3.67
#>  2 fake            0     2            3.76
#>  3 fake            0     3            3.62
#>  4 fake            0     4            3.84
#>  5 fake            0     5            3.82
#>  6 fake            0     6            3.73
#>  7 fake            0     7            3.75
#>  8 fake            0     8            3.55
#>  9 fake            0     9            3.53
#> 10 fake            0    10            3.59
#> # ... with 31,990 more rows
```
…
1.  Create 100 new unobserved children.
2.  Generate posterior expectations for these children.
3.  For each posterior draw, average these 100 children together.
4.  We now have a posterior distribution of 8,000 means that average
    over the variability in 100 children.

Here are the new chidren:

``` r
data_100_new_kids
#> # A tibble: 400 x 3
#>    child age_group_4 age_group
#>    <chr>       <dbl>     <dbl>
#>  1 .c001           0         4
#>  2 .c001           2         6
#>  3 .c001           4         8
#>  4 .c001           6        10
#>  5 .c002           0         4
#>  6 .c002           2         6
#>  7 .c002           4         8
#>  8 .c002           6        10
#>  9 .c003           0         4
#> 10 .c003           2         6
#> # ... with 390 more rows
```
…
And average the children within each draw together:

``` r
draws_posterior_epred_100_new_children_means <-
  draws_posterior_epred_100_new_children %>%
    group_by(.draw, age_group, age_group_4, .category) %>%
    summarise(
      .epred = mean(.epred),
      .groups = "drop"
    )
draws_posterior_epred_100_new_children_means
draws_posterior_epred_100_new_children_means
#> # A tibble: 128,000 x 5
#>    .draw age_group_4 age_group .category .epred
#>    <int>       <dbl>     <dbl> <fct>      <dbl>
#>  1     1           0         4 1         0.0417
#>  2     1           0         4 2         0.138 
#>  3     1           0         4 3         0.282 
#>  4     1           0         4 4         0.539 
#>  5     1           2         6 1         0.0937
#>  6     1           2         6 2         0.225 
#>  7     1           2         6 3         0.260 
#>  8     1           2         6 4         0.421 
#>  9     1           4         8 1         0.184 
#> 10     1           4         8 2         0.278 
#> # ... with 127,990 more rows
```
…
For this model, we centered age so that age 10 years occurs at 0 (the
model intercept), using the variable `age_group_10`. The data has the
following structure:

``` r
data2
#> # A tibble: 222 x 5
#>    child vss_rating starting_rating age_group_10 starting_rating_cont
#>    <chr> <ord>      <fct>                  <dbl>                <dbl>
#>  1 p001  3          4                         -4                    3
#>  2 p002  3          4                         -4                    3
#>  3 p002  2          4                         -2                    3
#>  4 p002  2          4                          0                    3
#>  5 p003  2          2                         -4                    1
#>  6 p003  1          2                          0                    1
#>  7 p004  4          4                         -4                    3
#>  8 p004  4          4                         -2                    3
#>  9 p004  4          4                          0                    3
#> 10 p005  2          2                         -4                    1
#> # ... with 212 more rows
```
…
