…
[brms](https://paulbuerkner.com/brms/) is the premier Bayesian
regression package in R, and we use it in many of our projects. In this
article, I describe the workflow for using brms that I have ~~stumbled
upon~~ iterated over our last few analysis projects.

## Context: A set of models

Suppose that we have a dataset of age and intelligibility.

``` r
data <- wisclabmisc::data_fake_intelligibility
data
#> # A tibble: 200 × 2
#>    age_months intelligibility
#>         <int>           <dbl>
#>  1         28           0.539
#>  2         29           0.375
#>  3         31           0.221
#>  4         31           0.253
#>  5         32           0.276
#>  6         32           0.750
#>  7         32           0.820
#>  8         33           0.325
#>  9         33           0.446
#> 10         33           0.592
#> # ℹ 190 more rows
```
…
