Tools for ROC curves • wisclabmisc
…
P(control result | control status)

Specificity is not a great term; selectivity makes slightly more sense. We don’t want the sensor to trip over noise: It needs to be specific or selective.

Suppose our diagnostic instrument provides a score, and we have to choose a diagnostic threshold for one of these scores. For example, suppose we decide that scores above 60 indicate that an email is probably spam and can be moved into the spam folder. Then that threshold will have its own specificity attached to it. We can look at the proportion of spam emails that are equal to or above 60 (sensitivity), and we can look at the proportion of ham emails that are below 60 (specificity). Each number we choose for the threshold will have its own sensitivity and specificity score, so an ROC curve is a visualization of how sensitivity and specificity change along the range of threshold scores. (More impenetrable terminology: ROC stands for “receiver operating characteristic”, having something to do with detections made by radar receivers at different operating levels.)

A worked example

We can work through an example ROC curve using the pROC package. pROC provides the aSAH dataset which provides “several clinical and one laboratory variable of 113 patients with an aneurysmal subarachnoid hemorrhage” (hence, aSAH).

We have the outcome (Good versus Poor) and some measure called s100b. We can see that that are many more Good outcomes near 0 and there are Poor outcomes.

data <- as_tibble(aSAH)
data
#> # A tibble: 113 × 7
#>    gos6  outcome gender   age wfns  s100b  ndka
#>    <ord> <fct>   <fct>  <int> <ord> <dbl> <dbl>
#>  1 5     Good    Female    42 1      0.13  3.01
#>  2 5     Good    Female    37 1      0.14  8.54
#>  3 5     Good    Female    42 1      0.1   8.09
#>  4 5     Good    Female    27 1      0.04 10.4 
#>  5 1     Poor    Female    42 3      0.13 17.4 
#>  6 1     Poor    Male      48 2      0.1  12.8 
#>  7 4     Good    Male      57 5      0.47  6   
#>  8 1     Poor    Male      41 4      0.16 13.2 
#>  9 5     Good    Female    49 1      0.18 15.5 
#> 10 4     Good    Female    75 2      0.1   6.01
#> # … with 103 more rows
…
We can get close to a dataframe by manipulating the list or by using coords(). pROC::coords() has additional features that allow it to identify the “best” ROC points, but it strips off useful data like the direction used.

r[1:5] %>% 
  as.data.frame() %>% 
  tibble::as_tibble()
#> # A tibble: 51 × 5
#>    percent sensitivities specificities thresholds direction
#>    <lgl>           <dbl>         <dbl>      <dbl> <chr>    
#>  1 FALSE           1            0        -Inf     <        
#>  2 FALSE           0.976        0           0.035 <        
#>  3 FALSE           0.976        0.0694      0.045 <        
#>  4 FALSE           0.976        0.111       0.055 <        
#>  5 FALSE           0.976        0.139       0.065 <        
#>  6 FALSE           0.902        0.222       0.075 <        
#>  7 FALSE           0.878        0.306       0.085 <        
#>  8 FALSE           0.829        0.389       0.095 <        
#>  9 FALSE           0.780        0.486       0.105 <        
#> 10 FALSE           0.756        0.542       0.115 <        
#> # … with 41 more rows

pROC::coords(r) %>% 
  tibble::as_tibble()
#> # A tibble: 51 × 3
#>    threshold specificity sensitivity
#>        <dbl>       <dbl>       <dbl>
#>  1  -Inf          0            1    
#>  2     0.035      0            0.976
#>  3     0.045      0.0694       0.976
#>  4     0.055      0.111        0.976
#>  5     0.065      0.139        0.976
#>  6     0.075      0.222        0.902
#>  7     0.085      0.306        0.878
#>  8     0.095      0.389        0.829
#>  9     0.105      0.486        0.780
#> 10     0.115      0.542        0.756
#> # … with 41 more rows

wisclabmisc provides compute_empirical_roc() which combines results from pROC::roc() and pROC::coords() into a tibble. It includes metadata about the .controls and .cases levels, the .direction of the relationship, and the overall .auc of the curve. It also identifies two “best” coordinates with .is_best_youden and is_best_closest_topleft. Finally, it retains the name of the predictor variable.

compute_empirical_roc(data, outcome, s100b)
#> Setting levels: control = Good, case = Poor
#> Setting direction: controls < cases
#> # A tibble: 51 × 9
#>       s100b .specificities .sensitivities  .auc .direction .controls .cases
#>       <dbl>          <dbl>          <dbl> <dbl> <chr>      <chr>     <chr> 
#>  1 -Inf             0               1     0.731 <          Good      Poor  
#>  2    0.035         0               0.976 0.731 <          Good      Poor  
#>  3    0.045         0.0694          0.976 0.731 <          Good      Poor  
#>  4    0.055         0.111           0.976 0.731 <          Good      Poor  
#>  5    0.065         0.139           0.976 0.731 <          Good      Poor  
#>  6    0.075         0.222           0.902 0.731 <          Good      Poor  
#>  7    0.085         0.306           0.878 0.731 <          Good      Poor  
#>  8    0.095         0.389           0.829 0.731 <          Good      Poor  
#>  9    0.105         0.486           0.780 0.731 <          Good      Poor  
#> 10    0.115         0.542           0.756 0.731 <          Good      Poor  
#> # … with 41 more rows, and 2 more variables: .is_best_youden <lgl>,
#> #   .is_best_closest_topleft <lgl>

We can still see the messages emitted by the pROC::roc() call when we use compute_empirical_roc(). We can pass the arguments direction and levels to pROC::roc() to silence these messages.

data_roc <- compute_empirical_roc(
  data, 
  outcome, 
  s100b, 
  direction = "<",
  levels = c("Good", "Poor")
)
data_roc
#> # A tibble: 51 × 9
#>       s100b .specificities .sensitivities  .auc .direction .controls .cases
#>       <dbl>          <dbl>          <dbl> <dbl> <chr>      <chr>     <chr> 
#>  1 -Inf             0               1     0.731 <          Good      Poor  
#>  2    0.035         0               0.976 0.731 <          Good      Poor  
#>  3    0.045         0.0694          0.976 0.731 <          Good      Poor  
#>  4    0.055         0.111           0.976 0.731 <          Good      Poor  
#>  5    0.065         0.139           0.976 0.731 <          Good      Poor  
#>  6    0.075         0.222           0.902 0.731 <          Good      Poor  
#>  7    0.085         0.306           0.878 0.731 <          Good      Poor  
#>  8    0.095         0.389           0.829 0.731 <          Good      Poor  
#>  9    0.105         0.486           0.780 0.731 <          Good      Poor  
#> 10    0.115         0.542           0.756 0.731 <          Good      Poor  
#> # … with 41 more rows, and 2 more variables: .is_best_youden <lgl>,
#> #   .is_best_closest_topleft <lgl>
…
data_grid <- data %>% 
  mutate(
    xmin = min(s100b),
    xmax = max(s100b)
  ) %>% 
  group_by(outcome) %>% 
  summarise(
    x = seq(xmin[1], xmax[1], length.out = 200),
    group_mean = mean(s100b),
    group_sd = sd(s100b),
    density = dnorm(x, group_mean, group_sd),
    .groups = "drop"
  ) 
data_grid
#> # A tibble: 400 × 5
#>    outcome      x group_mean group_sd density
#>    <fct>    <dbl>      <dbl>    <dbl>   <dbl>
#>  1 Good    0.03        0.162    0.131    1.84
#>  2 Good    0.0403      0.162    0.131    1.98
#>  3 Good    0.0505      0.162    0.131    2.13
#>  4 Good    0.0608      0.162    0.131    2.27
#>  5 Good    0.0710      0.162    0.131    2.40
#>  6 Good    0.0813      0.162    0.131    2.53
#>  7 Good    0.0915      0.162    0.131    2.64
#>  8 Good    0.102       0.162    0.131    2.75
#>  9 Good    0.112       0.162    0.131    2.84
#> 10 Good    0.122       0.162    0.131    2.91
#> # … with 390 more rows

Next, we pivot to a wide pivot format because we will be comparing the two densities at each point.

data_dens <- data_grid %>% 
  rename(s100b = x) %>% 
  select(-group_mean, -group_sd) %>% 
  pivot_wider(names_from = outcome, values_from = density)
data_dens
#> # A tibble: 200 × 3
#>     s100b  Good  Poor
#>     <dbl> <dbl> <dbl>
#>  1 0.03    1.84 0.659
#>  2 0.0403  1.98 0.676
#>  3 0.0505  2.13 0.694
#>  4 0.0608  2.27 0.711
#>  5 0.0710  2.40 0.729
#>  6 0.0813  2.53 0.746
#>  7 0.0915  2.64 0.763
#>  8 0.102   2.75 0.780
#>  9 0.112   2.84 0.797
#> 10 0.122   2.91 0.813
#> # … with 190 more rows
…
Because the < direction better matched the ROC results, we conclude that the sensitivities follow the same order as the densities.

compute_smooth_density_roc() uses a similar heuristic to determine the order of the ROC coordinates with respect to the original densities. As a result, we can map the original threshold values to sensitivity and specificity values. The function also lets us use column names directly.

data_smooth <- compute_smooth_density_roc(
  data = data_dens, 
  controls = Good, 
  cases = Poor, 
  along = s100b
)
data_smooth
#> # A tibble: 202 × 10
#>     s100b  Good  Poor .sensitivities .specificities  .auc .roc_row .direction
#>     <dbl> <dbl> <dbl>          <dbl>          <dbl> <dbl>    <int> <chr>     
#>  1 0.03    1.84 0.659          1             0      0.830        2 <         
#>  2 0.0403  1.98 0.676          0.992         0.0221 0.830        3 <         
#>  3 0.0505  2.13 0.694          0.984         0.0460 0.830        4 <         
#>  4 0.0608  2.27 0.711          0.975         0.0716 0.830        5 <         
#>  5 0.0710  2.40 0.729          0.967         0.0989 0.830        6 <         
#>  6 0.0813  2.53 0.746          0.958         0.128  0.830        7 <         
#>  7 0.0915  2.64 0.763          0.949         0.158  0.830        8 <         
#>  8 0.102   2.75 0.780          0.939         0.190  0.830        9 <         
#>  9 0.112   2.84 0.797          0.930         0.223  0.830       10 <         
#> 10 0.122   2.91 0.813          0.920         0.257  0.830       11 <         
#> # … with 192 more rows, and 2 more variables: .is_best_youden <lgl>,
#> #   .is_best_closest_topleft <lgl>
…
