Analysis code: 'Speech development between 30 and 119 months in typical children III: Interaction between speaking rate and intelligibility' • wisclabmisc
…
Supplemental Material DOI: 10.23641/asha.27964125.v2

Analysis notes: Bayesian mixed effects regression; marginal means;
brms; Mundlak device

Data

The first set of analyses considered each child’s mean speaking rate
and intelligibility for each utterance length.

library(tidyverse)
data_model <- targets::tar_read("data_model_anon")
data_model
#> # A tibble: 2,196 × 14
#>    child speaking_sps artic_sps age_months tocs_level length_longest age_bin
#>    <chr>        <dbl>     <dbl>      <dbl>      <dbl>          <dbl>   <dbl>
#>  1 c464          2.71      2.71         30          3              4      36
#>  2 c464          2.55      2.62         30          4              4      36
#>  3 c017          2.04      2.08         30          3              3      36
#>  4 c315          2.03      2.20         30          3              3      36
#>  5 c468          1.87      1.90         30          3              3      36
#>  6 c154          2.25      2.41         30          3              3      36
#>  7 c338          2.59      2.69         31          3              3      36
#>  8 c110          2.69      2.79         31          3              4      36
#>  9 c110          2.66      2.74         31          4              4      36
#> 10 c431          3.30      3.30         31          3              3      36
#> # ℹ 2,186 more rows
#> # ℹ 7 more variables: intelligibility <dbl>, mwi <dbl>, speaking_sps_3 <dbl>,
#> #   artic_sps_3 <dbl>, age_48 <dbl>, tocs_length <fct>, tocs_level_3 <dbl>
…
Create a grid of data to make predictions for, giving
child an out-of-sample value. To make things easier, I
break the data into batches in a list.

newdata <- tidyr::crossing(
  age_48 = (3:7) * 12 - 48,
  tocs_length = c("3", "4", "5", "6", "7"),
  speaking_sps_3 = c(0, .5),
  child = "fake"
) 
newdata
#> # A tibble: 50 × 4
#>    age_48 tocs_length speaking_sps_3 child
#>     <dbl> <chr>                <dbl> <chr>
#>  1    -12 3                      0   fake 
#>  2    -12 3                      0.5 fake 
#>  3    -12 4                      0   fake 
#>  4    -12 4                      0.5 fake 
#>  5    -12 5                      0   fake 
#>  6    -12 5                      0.5 fake 
#>  7    -12 6                      0   fake 
#>  8    -12 6                      0.5 fake 
#>  9    -12 7                      0   fake 
#> 10    -12 7                      0.5 fake 
#> # ℹ 40 more rows
…
This part is time-consuming so I load in the precomputed value.

targets::tar_read(marginal_means_model_rs_length)
#> # A tibble: 50 × 6
#>    age_48 tocs_length speaking_sps_3 child        .linpred     .marginal
#>     <dbl> <chr>                <dbl> <chr>      <rvar[1d]>    <rvar[1d]>
#>  1    -12 3                        0 fake    0.231 ± 0.080  0.55 ± 0.018
#>  2    -12 4                        0 fake    0.130 ± 0.080  0.53 ± 0.019
#>  3    -12 5                        0 fake   -0.078 ± 0.077  0.48 ± 0.019
#>  4    -12 6                        0 fake    0.061 ± 0.082  0.51 ± 0.020
#>  5    -12 7                        0 fake   -0.283 ± 0.084  0.43 ± 0.020
#>  6      0 3                        0 fake    1.448 ± 0.065  0.78 ± 0.011
#>  7      0 4                        0 fake    1.347 ± 0.063  0.78 ± 0.010
#>  8      0 5                        0 fake    1.138 ± 0.058  0.75 ± 0.011
#>  9      0 6                        0 fake    1.278 ± 0.064  0.77 ± 0.011
#> 10      0 7                        0 fake    0.933 ± 0.066  0.71 ± 0.013
#> # ℹ 40 more rows

The .marginal column has 6000 marginal means for each
row of the prediction grid. Subtracting between two rows would give 6000
differences. Estimates and comparisons were computed by taking the
median and 95% quantile intervals of the means and differences.

Logistic regression model

For the within-child effects of rate, we use the item-level data for
the 5-, 6-, and 7-word utterances.

data_model_by_item_anon <- targets::tar_read(data_model_by_item_anon)
data_model_by_item_anon
#> # A tibble: 11,282 × 18
#>    child item  speaking_sps artic_sps age_months tocs_level length_longest
#>    <chr> <chr>        <dbl>     <dbl>      <dbl>      <dbl>          <dbl>
#>  1 c130  S5T01         2.47      2.47         34          5              5
#>  2 c130  S5T02         2.26      2.26         34          5              5
#>  3 c130  S5T03         2.55      2.55         34          5              5
#>  4 c130  S5T04         2.77      2.77         34          5              5
#>  5 c130  S5T05         3.01      3.01         34          5              5
#>  6 c130  S5T06         1.89      2.12         34          5              5
#>  7 c130  S5T07         2.39      2.39         34          5              5
#>  8 c130  S5T08         2.20      2.50         34          5              5
#>  9 c130  S5T09         2.83      2.83         34          5              5
#> 10 c227  S5T01         3         3            35          5              5
#> # ℹ 11,272 more rows
#> # ℹ 11 more variables: age_bin <dbl>, intelligibility <dbl>,
#> #   n_words_correct <dbl>, n_words_total <dbl>, mwi <dbl>,
#> #   speaking_sps_3 <dbl>, artic_sps_3 <dbl>, age_48 <dbl>, tocs_length <fct>,
#> #   tocs_level_3 <dbl>, child_mean_rate <dbl>
…
