Utterance length imputation and weighting • wisclabmisc
…
data_means_wide_1 <- data_weighted_1 |> 
  group_by(subject_num, age_months) |> 
  summarise(
    observed = mean(sim_intelligibility, na.rm = TRUE),
    imputed = mean(imputed_sim_intelligibility),
    weighted = weighted.mean(
      imputed_sim_intelligibility, 
      normalized_prob_reach_length
    ),
    .groups = "drop"
  ) 
data_means_wide_1
#> # A tibble: 164 × 5
#>    subject_num age_months observed imputed weighted
#>    <chr>            <int>    <dbl>   <dbl>    <dbl>
#>  1 c001                45    0.533   0.530    0.531
#>  2 c002                42    0.389   0.337    0.360
#>  3 c003                41    0.544   0.532    0.540
#>  4 c004                42    0.660   0.660    0.655
#>  5 c005                43    0.707   0.725    0.710
#>  6 c006                42    0.524   0.513    0.523
#>  7 c007                32    0.355   0.307    0.350
#>  8 c008                43    0.828   0.828    0.832
#>  9 c009                38    0.868   0.873    0.869
#> 10 c010                47    0.767   0.767    0.765
#> # ℹ 154 more rows
…
